[
{"title":"x","data":{"rows":[[1,1],[1],[1,1]],"columns":[[1,1],[1],[1,1]]},"size":{"rows":3,"columns":3}},
{"title":"Grand_X","data":{"rows":[[1,1],[2,2],[3],[2,2],[1,1]],"columns":[[2,2],[3],[1],[3],[2,2]]},"size":{"rows":5,"columns":5}},
{"title":"OOO","data":{"rows":[[2],[1,1],[1,1],[2]],"columns":[[2],[1,1],[1,1],[2]]},"size":{"rows":4,"columns":4}},
{"title":"OOO-2","data":{"rows":[[2],[1,1],[1,1],[2]],"columns":[[2],[1,1],[1,1],[2]]},"size":{"rows":4,"columns":4}},
{"title":"Croix","data":{"rows":[[2],[2],[2],[6],[6],[2],[2],[2],[2],[2],[2],[2]],"columns":[[2],[2],[12],[12],[2],[2]]},"size":{"rows":12,"columns":6}} 
]